{"data":[{"id":"Exwf4dvRcdBoYLTgEX9x","type":"image","timeRecorded":"2022-08-15T19:16:50.000Z","sensorNo":6,"deviceId":"dizwqq96w36j","image":{"filename":"./__image/e3bd4676-9d97-417b-9c6e-c7295a96e470.webp","isInfrared":true,"confNo":null},"evidences":[],"claims":[]},{"id":"zqj03uzCB3lLfOKRdScm","type":"image","timeRecorded":"2022-08-15T19:17:37.000Z","sensorNo":6,"deviceId":"dizwqq96w36j","image":{"filename":"./__image/b2572ab1-f5fa-487b-bcc3-261c85d9bc9b.webp","isInfrared":true,"confNo":null},"evidences":[],"claims":[]},{"id":"9P5d2eak0TSvdqjFVkgT","type":"image","timeRecorded":"2022-08-15T19:18:07.000Z","sensorNo":6,"deviceId":"dizwqq96w36j","image":{"filename":"./__image/a9426d23-3105-4dc6-8f03-450eefcff20b.webp","isInfrared":true,"confNo":null},"evidences":[],"claims":[]},{"id":"PKkqnj8ccmA1ZaZ1Vy53","type":"image","timeRecorded":"2022-08-15T19:18:37.000Z","sensorNo":6,"deviceId":"dizwqq96w36j","image":{"filename":"./__image/e57dfadb-9350-4095-8517-d21e3c78fc49.webp","isInfrared":true,"confNo":null},"evidences":[],"claims":[]},{"id":"5e5E3GBPLoLHIsK4yUe8","type":"image","timeRecorded":"2022-08-15T19:19:07.000Z","sensorNo":6,"deviceId":"dizwqq96w36j","image":{"filename":"./__image/63a60ffe-4b6e-43c0-b38f-d58dfc8c1732.webp","isInfrared":true,"confNo":null},"evidences":[],"claims":[]}],"count":5,"total":35076,"page":1,"pageCount":7016}