{"data":[{"id":"XkoJwp4NWFScTfqdX3xt","type":"smoke","timeRecorded":"2022-08-15T05:42:37.000Z","sensorNo":7,"deviceId":"dizwqq96w36j","smoke":{"smokeProb":0.07105258107185364},"evidences":[],"claims":[]},{"id":"GYzb9Zrv1mc8gTP6gXzi","type":"smoke","timeRecorded":"2022-08-15T05:43:05.000Z","sensorNo":7,"deviceId":"dizwqq96w36j","smoke":{"smokeProb":0.06533458083868027},"evidences":[],"claims":[]},{"id":"HFZgu4wFPTcaSCXy5CrI","type":"smoke","timeRecorded":"2022-08-15T05:43:35.000Z","sensorNo":7,"deviceId":"dizwqq96w36j","smoke":{"smokeProb":0.06869637966156006},"evidences":[],"claims":[]},{"id":"uN1Ejcbtq19k4r9kbL5W","type":"smoke","timeRecorded":"2022-08-15T05:44:05.000Z","sensorNo":7,"deviceId":"dizwqq96w36j","smoke":{"smokeProb":0.06424049288034439},"evidences":[],"claims":[]},{"id":"NsxoLhOGj4B0mVXbM6Rj","type":"smoke","timeRecorded":"2022-08-15T05:44:35.000Z","sensorNo":7,"deviceId":"dizwqq96w36j","smoke":{"smokeProb":0.06258835643529892},"evidences":[],"claims":[]}],"count":5,"total":63806,"page":1,"pageCount":12762}